…
Don’t freak out! Those are wide error bars, but nothing went wrong – it’s just really hard to estimate the true number of unknown species in soil. breakaway was developed to deal with this, and to make sure that we account for that uncertainty when we do inference.

We can get a table of the estimates and their uncertainties as follows:

summary(richness_soil) %>% as_tibble

## # A tibble: 32 × 7
##    estimate  error lower   upper sample_names name      model            
##       <dbl>  <dbl> <dbl>   <dbl> <chr>        <chr>     <chr>            
##  1    5257.  203.  4010.  54003. S009         breakaway Kemp             
##  2    5343. 2252.  4317. 316529. S204         breakaway Kemp             
##  3    4609.  978.  2782. 250548. S012         breakaway Kemp             
##  4    5446. 1393.  3864. 299572. S207         breakaway Kemp             
##  5    5359.  143.  4370.  35608. S202         breakaway Kemp             
##  6    3882.  181.  2802.  44399. S007         breakaway Kemp             
##  7    4906. 4787.  3111. 748118. S022         breakaway Kemp             
##  8    5215.  343.  3327. 106472. S024         breakaway Negative Binomial
##  9    4509.   98.9 3443.  24952. S032         breakaway Kemp             
## 10    5070.  114.  4189.  27300. S212         breakaway Kemp             
## # … with 22 more rows
…
We can look at the first few Shannon diversity estimates with the following:

combined_shannon <- meta %>%
  dplyr::left_join(dv$shannon %>% summary,
            by = "sample_names")
combined_shannon

## # A tibble: 32 × 12
##    Plants DayAmdmt Amdmt ID    Day   sample_names estimate    error lower upper
##    <chr>  <chr>    <chr> <chr> <chr> <chr>           <dbl>    <dbl> <dbl> <dbl>
##  1 1      01       1     D     0     S009             2.04 0.00576   2.03  2.06
##  2 1      21       1     D     2     S204             1.98 0.000987  1.98  1.98
##  3 0      01       1     B     0     S012             2.00 0.00646   1.99  2.02
##  4 0      21       1     B     2     S207             2.04 0.00325   2.04  2.05
##  5 0      21       1     B     2     S202             2.01 0.00261   2.01  2.02
##  6 0      01       1     B     0     S007             2.04 0.00464   2.04  2.05
##  7 0      01       1     B     0     S022             2.04 0.00529   2.03  2.05
##  8 1      01       1     D     0     S024             2.01 0.00526   2.00  2.02
##  9 0      01       1     B     0     S032             1.99 0.00130   1.99  2.00
## 10 0      21       1     B     2     S212             2.02 0.000765  2.02  2.03
## # … with 22 more rows, and 2 more variables: name <chr>, model <chr>
…
We again run DivNet and extract estimates of Shannon diversity.

# we again have stored the output of the following DivNet call
# dv_days_1_2 <- DivNet::divnet(soil_phylum_days_1_2, X = NULL)

# and we load the fitted model directly
data("dv_days_1_2")

combined_shannon_days_1_2 <- meta_days_1_2 %>%
  dplyr::left_join(dv_days_1_2$shannon %>% summary,
            by = "sample_names")
combined_shannon_days_1_2

## # A tibble: 48 × 12
##    Plants DayAmdmt Amdmt ID    Day   sample_names estimate    error lower upper
##    <chr>  <chr>    <chr> <chr> <chr> <chr>           <dbl>    <dbl> <dbl> <dbl>
##  1 1      01       1     D     0     S009             2.04 0.00329   2.04  2.05
##  2 1      21       1     D     2     S204             1.98 0.00103   1.98  1.98
##  3 0      11       1     B     1     S112             1.96 0.00494   1.95  1.97
##  4 0      01       1     B     0     S012             2.00 0.00597   1.99  2.02
##  5 1      11       1     D     1     S134             1.99 0.00127   1.98  1.99
##  6 0      21       1     B     2     S207             2.04 0.00233   2.04  2.05
##  7 0      21       1     B     2     S202             2.01 0.000611  2.01  2.01
##  8 0      01       1     B     0     S007             2.04 0.00289   2.04  2.05
##  9 1      11       1     D     1     S139             1.91 0.00239   1.91  1.92
## 10 0      11       1     B     1     S122             1.99 0.00142   1.99  2.00
## # … with 38 more rows, and 2 more variables: name <chr>, model <chr>
…
